Introduction to ballr
…
Example 2

players <- NBAPerGameStatistics()
players

## # A tibble: 664 x 31
##       rk player pos     age tm        g    gs    mp    fg   fga fgpercent
##    <dbl> <chr>  <chr> <dbl> <chr> <dbl> <dbl> <dbl> <dbl> <dbl>     <dbl>
##  1     1 Álex … SG       24 OKC      75     8  15.1   1.5   3.9     0.395
##  2     2 Quinc… PF       27 BRK      70     8  19.4   1.9   5.2     0.356
##  3     3 Steve… C        24 OKC      76    76  32.7   5.9   9.4     0.629
##  4     4 Bam A… C        20 MIA      69    19  19.8   2.5   4.9     0.512
##  5     5 Arron… SG       32 ORL      53     3  12.9   1.2   3.1     0.401
##  6     6 Cole … C        29 MIN      21     0   2.3   0.2   0.7     0.333
##  7     7 LaMar… C        32 SAS      75    75  33.5   9.2  18       0.51 
##  8     8 Jarre… C        19 BRK      72    31  20     3.3   5.5     0.589
##  9     9 Kadee… PG       25 BOS      18     1   5.9   0.3   1.2     0.273
## 10    10 Tony … SF       36 NOP      22     0  12.4   2     4.1     0.484
## # … with 654 more rows, and 20 more variables: x3p <dbl>, x3pa <dbl>,
## #   x3ppercent <dbl>, x2p <dbl>, x2pa <dbl>, x2ppercent <dbl>,
## #   efgpercent <dbl>, ft <dbl>, fta <dbl>, ftpercent <dbl>, orb <dbl>,
## #   drb <dbl>, trb <dbl>, ast <dbl>, stl <dbl>, blk <dbl>, tov <dbl>,
## #   pf <dbl>, pts <dbl>, link <chr>

Example 3

players <- NBAPerGameStatistics(season = 2017)

players %>%
  dplyr::filter(mp > 20, pos %in% c("SF")) %>%
  dplyr::select(player, link) %>%
  dplyr::distinct()

## # A tibble: 51 x 2
##    player                link                     
##    <chr>                 <chr>                    
##  1 Justin Anderson       /players/a/anderju01.html
##  2 Giannis Antetokounmpo /players/a/antetgi01.html
##  3 Carmelo Anthony       /players/a/anthoca01.html
##  4 Trevor Ariza          /players/a/arizatr01.html
##  5 Matt Barnes           /players/b/barnema02.html
##  6 Kent Bazemore         /players/b/bazemke01.html
##  7 Bojan Bogdanović      /players/b/bogdabo02.html
##  8 Jimmy Butler          /players/b/butleji01.html
##  9 DeMarre Carroll       /players/c/carrode01.html
## 10 Vince Carter          /players/c/cartevi01.html
## # … with 41 more rows

Example 4

players <- NBAPerGameStatisticsPer36Min(season = 2017)

players

## # A tibble: 595 x 30
##       rk player pos     age tm        g    gs    mp    fg   fga fgpercent
##    <dbl> <chr>  <chr> <dbl> <chr> <dbl> <dbl> <dbl> <dbl> <dbl>     <dbl>
##  1     1 Álex … SG       23 OKC      68     6  1055   4.6  11.6     0.393
##  2     2 Quinc… PF       26 TOT      38     1   558   4.5  11       0.412
##  3     2 Quinc… PF       26 DAL       6     0    48   3.7  12.7     0.294
##  4     2 Quinc… PF       26 BRK      32     1   510   4.6  10.8     0.425
##  5     3 Steve… C        23 OKC      80    80  2389   5.6   9.9     0.571
##  6     4 Arron… SG       31 SAC      61    45  1580   4.2   9.6     0.44 
##  7     5 Alexi… C        28 NOP      39    15   584   5.5  11       0.5  
##  8     6 Cole … C        28 MIN      62     0   531   3.1   5.8     0.523
##  9     7 LaMar… PF       31 SAS      72    72  2335   7.7  16.2     0.477
## 10     8 Lavoy… PF       27 IND      61     5   871   3.2   6.9     0.458
## # … with 585 more rows, and 19 more variables: x3p <dbl>, x3pa <dbl>,
## #   x3ppercent <dbl>, x2p <dbl>, x2pa <dbl>, x2ppercent <dbl>, ft <dbl>,
## #   fta <dbl>, ftpercent <dbl>, orb <dbl>, drb <dbl>, trb <dbl>,
## #   ast <dbl>, stl <dbl>, blk <dbl>, tov <dbl>, pf <dbl>, pts <dbl>,
## #   link <chr>
…
